…
<img src="eda_files/figure-gfm/unnamed-chunk-6-1.png" width="90%" />

``` r
weather_df |> 
  group_by(name, month) |> 
  summarize(n_obs = n())
```

    ## `summarise()` has grouped output by 'name'. You can override using the
    ## `.groups` argument.

    ## # A tibble: 66 × 3
    ## # Groups:   name [3]
    ##    name           month      n_obs
    ##    <chr>          <date>     <int>
    ##  1 CentralPark_NY 2022-01-01    31
    ##  2 CentralPark_NY 2022-02-01    28
    ##  3 CentralPark_NY 2022-03-01    31
    ##  4 CentralPark_NY 2022-04-01    30
    ##  5 CentralPark_NY 2022-05-01    31
    ##  6 CentralPark_NY 2022-06-01    30
    ##  7 CentralPark_NY 2022-07-01    31
    ##  8 CentralPark_NY 2022-08-01    31
    ##  9 CentralPark_NY 2022-09-01    30
    ## 10 CentralPark_NY 2022-10-01    31
    ## # ℹ 56 more rows
…
``` r
weather_df |> 
  count(name, month) |> 
  pivot_wider(
    names_from = name,
    values_from = n
  )
```

    ## # A tibble: 22 × 4
    ##    month      CentralPark_NY Molokai_HI Waterhole_WA
    ##    <date>              <int>      <int>        <int>
    ##  1 2022-01-01             31         31           31
    ##  2 2022-02-01             28         28           28
    ##  3 2022-03-01             31         31           31
    ##  4 2022-04-01             30         30           30
    ##  5 2022-05-01             31         31           31
    ##  6 2022-06-01             30         30           30
    ##  7 2022-07-01             31         31           31
    ##  8 2022-08-01             31         31           31
    ##  9 2022-09-01             30         30           30
    ## 10 2022-10-01             31         31           31
    ## # ℹ 12 more rows
…
``` r
weather_df |> 
  group_by(name, month) |> 
  summarize(
    mean_tmax = mean(tmax, na.rm = TRUE),
    median_tmax = median(tmax, na.rm = TRUE),
    sd_tmax = sd(tmax, na.rm = TRUE)
  )
```

    ## `summarise()` has grouped output by 'name'. You can override using the
    ## `.groups` argument.

    ## # A tibble: 66 × 5
    ## # Groups:   name [3]
    ##    name           month      mean_tmax median_tmax sd_tmax
    ##    <chr>          <date>         <dbl>       <dbl>   <dbl>
    ##  1 CentralPark_NY 2022-01-01      2.85         2.8    5.11
    ##  2 CentralPark_NY 2022-02-01      7.65         7.5    6.79
    ##  3 CentralPark_NY 2022-03-01     12.0         11.1    6.27
    ##  4 CentralPark_NY 2022-04-01     15.8         15.3    4.36
    ##  5 CentralPark_NY 2022-05-01     22.3         22.2    5.24
    ##  6 CentralPark_NY 2022-06-01     26.1         26.1    3.07
    ##  7 CentralPark_NY 2022-07-01     30.7         30      2.24
    ##  8 CentralPark_NY 2022-08-01     30.5         30.6    2.65
    ##  9 CentralPark_NY 2022-09-01     24.9         25      3.94
    ## 10 CentralPark_NY 2022-10-01     17.4         17.2    3.35
    ## # ℹ 56 more rows
…
    ## Warning: Removed 105 rows containing missing values (`geom_point()`).

<img src="eda_files/figure-gfm/unnamed-chunk-13-1.png" width="90%" />

``` r
weather_df |>
  group_by(name, month) |>
  mutate(temp_ranking = min_rank(tmax))
```

    ## # A tibble: 2,007 × 8
    ## # Groups:   name, month [66]
    ##    name           id        date        prcp  tmax  tmin month      temp_ranking
    ##    <chr>          <chr>     <date>     <dbl> <dbl> <dbl> <date>            <int>
    ##  1 CentralPark_NY USW00094… 2022-01-01   201  13.3  10   2022-01-01           30
    ##  2 CentralPark_NY USW00094… 2022-01-02    10  15     2.8 2022-01-01           31
    ##  3 CentralPark_NY USW00094… 2022-01-03     0   2.8  -5.5 2022-01-01           16
    ##  4 CentralPark_NY USW00094… 2022-01-04     0   1.1  -7.1 2022-01-01           12
    ##  5 CentralPark_NY USW00094… 2022-01-05    58   8.3  -0.5 2022-01-01           27
    ##  6 CentralPark_NY USW00094… 2022-01-06     0   5     1.1 2022-01-01           22
    ##  7 CentralPark_NY USW00094… 2022-01-07    97   1.1  -3.8 2022-01-01           12
    ##  8 CentralPark_NY USW00094… 2022-01-08     0  -1    -6.6 2022-01-01            8
    ##  9 CentralPark_NY USW00094… 2022-01-09    25   4.4  -1.6 2022-01-01           19
    ## 10 CentralPark_NY USW00094… 2022-01-10     0   4.4  -4.3 2022-01-01           19
    ## # ℹ 1,997 more rows

lags, are used to compare an observation to it’s previous value. This is
useful, for example, to find the day-by-day change in max temperature
within each station over the year:

``` r
weather_df |>
  group_by(name) |>
  mutate(temp_change = tmax - lag(tmax))
```

    ## # A tibble: 2,007 × 8
    ## # Groups:   name [3]
    ##    name           id         date        prcp  tmax  tmin month      temp_change
    ##    <chr>          <chr>      <date>     <dbl> <dbl> <dbl> <date>           <dbl>
    ##  1 CentralPark_NY USW000947… 2022-01-01   201  13.3  10   2022-01-01        NA  
    ##  2 CentralPark_NY USW000947… 2022-01-02    10  15     2.8 2022-01-01         1.7
    ##  3 CentralPark_NY USW000947… 2022-01-03     0   2.8  -5.5 2022-01-01       -12.2
    ##  4 CentralPark_NY USW000947… 2022-01-04     0   1.1  -7.1 2022-01-01        -1.7
    ##  5 CentralPark_NY USW000947… 2022-01-05    58   8.3  -0.5 2022-01-01         7.2
    ##  6 CentralPark_NY USW000947… 2022-01-06     0   5     1.1 2022-01-01        -3.3
    ##  7 CentralPark_NY USW000947… 2022-01-07    97   1.1  -3.8 2022-01-01        -3.9
    ##  8 CentralPark_NY USW000947… 2022-01-08     0  -1    -6.6 2022-01-01        -2.1
    ##  9 CentralPark_NY USW000947… 2022-01-09    25   4.4  -1.6 2022-01-01         5.4
    ## 10 CentralPark_NY USW000947… 2022-01-10     0   4.4  -4.3 2022-01-01         0  
    ## # ℹ 1,997 more rows
